0x43u, 0x46u, 0x53u, 0x00u, 0x01u, 0x00u, 0x03u, 0x01u, 0x02u, 0x00u, 0x01u,
0x08u, 0x40u, 0x00u, 0x40u, 0x00u, 0x40u, 0x00u, 0x40u, 0x00u, 0x40u, 0x00u,
0x40u, 0x00u, 0x40u, 0x00u, 0x40u, 0x00u, 0x40u, 0x00u, 0x40u, 0x00u, 0x3fu,
0xebu, 0x3eu, 0x10u, 0x39u, 0xc4u, 0x33u, 0x07u, 0x29u, 0xd9u, 0x1eu, 0x46u,
0x13u, 0x56u, 0x0au, 0xd7u, 0x04u, 0xc9u, 0x01u, 0x2cu, 0x00u, 0x00u, 0x00u,
0x00u, 0x00u, 0x00u, 0x00u, 0x00u, 0x00u, 0x00u, 0x00u, 0x00u, 0x00u, 0x00u,
0x00u, 0x00u, 0x00u, 0x00u, 0x00u, 0x00u, 0x00u, 0x00u, 0x00u, 0x00u, 0x00u,
0x00u, 0x00u, 0x00u, 0x00u, 0x00u, 0x00u, 0x00u, 0x00u, 0x00u, 0x00u, 0x00u,
0x00u, 0x00u, 0x00u, 0x00u, 0x00u, 0x00u, 0x00u, 0x00u, 0x00u, 0x00u, 0x00u,
0x00u, 0x00u, 0x00u, 0x00u, 0x00u, 0x00u, 0x00u, 0x00u, 0x00u, 0x00u, 0x00u,
0x00u, 0x00u, 0x00u, 0x00u, 0x00u, 0x00u, 0x00u, 0x00u, 0x00u, 0x00u, 0x00u,
0x00u, 0x00u, 0x00u, 0x00u, 0x00u, 0x00u, 0x00u, 0x00u, 0x00u, 0x00u, 0x00u,
0x00u, 0x00u, 0x00u, 0x00u, 0x00u, 0x00u, 0x00u, 0x00u, 0x00u, 0x00u, 0x00u,
0x00u, 0x00u, 0x00u, 0x00u, 0x00u, 0x00u, 0x00u, 0x00u, 0x00u, 0x00u, 0x00u,
0x00u, 0x00u, 0x00u, 0x00u, 0x00u, 0x00u, 0x00u, 0x00u, 0x00u, 0x00u, 0x00u,
0x00u, 0x00u, 0x00u, 0x00u, 0x00u, 0x00u, 0x00u, 0x00u, 0x00u, 0x00u, 0x00u,
0x00u, 0x00u, 0x00u, 0x00u, 0x00u, 0x00u, 0x00u, 0x00u, 0x00u, 0x00u, 0x00u,
0x00u, 0x00u, 0x00u, 0x00u, 0x00u, 0x00u, 0x00u, 0x00u, 0x00u, 0x00u, 0x00u,
0x00u, 0x00u, 0x00u, 0x00u, 0x00u, 0x00u, 0x00u, 0x00u, 0x00u, 0x00u, 0x00u,
0x00u, 0x00u, 0x00u, 0x00u, 0x00u, 0x00u, 0x00u, 0x00u, 0x00u, 0x00u, 0x00u,
0x00u, 0x00u, 0x00u, 0x00u, 0x00u, 0x00u, 0x00u, 0x00u, 0x00u, 0x00u, 0x00u,
0x00u, 0x00u, 0x00u, 0x00u, 0x00u, 0x00u, 0x00u, 0x00u, 0x00u, 0x00u, 0x00u,
0x00u, 0x00u, 0x00u, 0x00u, 0x00u, 0x00u, 0x00u, 0x00u, 0x00u, 0x00u, 0x00u,
0x00u, 0x00u, 0x00u, 0x00u, 0x00u, 0x00u, 0x00u, 0x00u, 0x00u, 0x00u, 0x00u,
0x00u, 0x00u, 0x00u, 0x00u, 0x00u, 0x00u, 0x00u, 0x00u, 0x00u, 0x00u, 0x00u,
0x00u, 0x00u, 0x00u, 0x00u, 0x00u, 0x00u, 0x00u, 0x00u, 0x00u, 0x00u, 0x00u,
0x00u, 0x00u, 0x00u, 0x00u, 0x00u, 0x00u, 0x00u, 0x00u, 0x00u, 0x00u, 0x00u,
0x00u, 0x00u, 0x00u, 0x00u, 0x00u, 0x00u, 0x00u, 0x00u, 0x00u, 0x00u, 0x00u,
0x00u, 0x00u, 0x00u, 0x00u, 0x00u, 0x00u, 0x00u, 0x00u, 0x00u, 0x00u, 0x00u,
0x00u, 0x00u, 0x00u, 0x00u, 0x00u, 0x00u, 0x00u, 0x00u, 0x00u, 0x00u, 0x00u,
0x00u, 0x00u, 0x00u, 0x00u, 0x00u, 0x00u, 0x00u, 0x00u, 0x00u, 0x00u, 0x00u,
0x00u, 0x00u, 0x00u, 0x00u, 0x00u, 0x00u, 0x00u, 0x00u, 0x00u, 0x00u, 0x00u,
0x00u, 0x00u, 0x00u, 0x00u, 0x00u, 0x00u, 0x00u, 0x00u, 0x00u, 0x00u, 0x00u,
0x00u, 0x00u, 0x00u, 0x00u, 0x00u, 0x00u, 0x00u, 0x00u, 0x00u, 0x00u, 0x00u,
0x00u, 0x00u, 0x00u, 0x00u, 0x00u, 0x00u, 0x00u, 0x00u, 0x00u, 0x00u, 0x00u,
0x00u, 0x00u, 0x00u, 0x00u, 0x00u, 0x00u, 0x00u, 0x00u, 0x00u, 0x00u, 0x00u,
0x00u, 0x00u, 0x00u, 0x00u, 0x00u, 0x00u, 0x00u, 0x00u, 0x00u, 0x00u, 0x00u,
0x00u, 0x00u, 0x00u, 0x00u, 0x00u, 0x00u, 0x00u, 0x00u, 0x00u, 0x00u, 0x00u,
0x00u, 0x00u, 0x00u, 0x00u, 0x00u, 0x00u, 0x00u, 0x00u, 0x00u, 0x00u, 0x00u,
0x00u, 0x00u, 0x00u, 0x00u, 0x00u, 0x00u, 0x00u, 0x00u, 0x00u, 0x00u, 0x00u,
0x00u, 0x00u, 0x00u, 0x00u, 0x00u, 0x00u, 0x00u, 0x00u, 0x00u, 0x00u, 0x00u,
0x00u, 0x00u, 0x00u, 0x00u, 0x00u, 0x00u, 0x00u, 0x00u, 0x00u, 0x00u, 0x00u,
0x00u, 0x00u, 0x00u, 0x00u, 0x00u, 0x00u, 0x00u, 0x00u, 0x00u, 0x00u, 0x00u,
0x00u, 0x00u, 0x00u, 0x00u, 0x00u, 0x00u, 0x00u, 0x00u, 0x00u, 0x00u, 0x00u,
0x00u, 0x00u, 0x00u, 0x00u, 0x00u, 0x00u, 0x00u, 0x00u, 0x00u, 0x00u, 0x00u,
0x00u, 0x00u, 0x00u, 0x00u, 0x00u, 0x00u, 0x00u, 0x00u, 0x00u, 0x00u, 0x00u,
0x00u, 0x00u, 0x00u, 0x00u, 0x00u, 0x00u, 0x00u, 0x00u, 0x00u, 0x00u, 0x00u,
0x00u, 0x00u, 0x00u, 0x00u, 0x00u, 0x00u, 0x00u, 0x01u, 0x08u, 0x00u, 0x00u,
0x00u, 0x00u, 0x00u, 0x00u, 0x00u, 0x00u, 0x00u, 0x00u, 0x00u, 0x00u, 0x00u,
0x00u, 0x00u, 0x00u, 0x00u, 0x00u, 0x00u, 0x00u, 0x00u, 0x15u, 0x01u, 0xf0u,
0x06u, 0x3cu, 0x0cu, 0xf9u, 0x16u, 0x27u, 0x21u, 0xbau, 0x2cu, 0xaau, 0x35u,
0x29u, 0x3bu, 0x37u, 0x3eu, 0xd4u, 0x40u, 0x00u, 0x40u, 0x00u, 0x40u, 0x00u,
0x40u, 0x00u, 0x40u, 0x00u, 0x40u, 0x00u, 0x40u, 0x00u, 0x40u, 0x00u, 0x40u,
0x00u, 0x40u, 0x00u, 0x40u, 0x00u, 0x40u, 0x00u, 0x40u, 0x00u, 0x40u, 0x00u,
0x40u, 0x00u, 0x40u, 0x00u, 0x40u, 0x00u, 0x40u, 0x00u, 0x40u, 0x00u, 0x40u,
0x00u, 0x40u, 0x00u, 0x40u, 0x00u, 0x40u, 0x00u, 0x40u, 0x00u, 0x40u, 0x00u,
0x40u, 0x00u, 0x40u, 0x00u, 0x40u, 0x00u, 0x40u, 0x00u, 0x40u, 0x00u, 0x40u,
0x00u, 0x40u, 0x00u, 0x40u, 0x00u, 0x40u, 0x00u, 0x40u, 0x00u, 0x40u, 0x00u,
0x40u, 0x00u, 0x40u, 0x00u, 0x40u, 0x00u, 0x40u, 0x00u, 0x40u, 0x00u, 0x40u,
0x00u, 0x40u, 0x00u, 0x40u, 0x00u, 0x40u, 0x00u, 0x40u, 0x00u, 0x40u, 0x00u,
0x40u, 0x00u, 0x40u, 0x00u, 0x40u, 0x00u, 0x40u, 0x00u, 0x40u, 0x00u, 0x40u,
0x00u, 0x40u, 0x00u, 0x40u, 0x00u, 0x40u, 0x00u, 0x40u, 0x00u, 0x40u, 0x00u,
0x40u, 0x00u, 0x40u, 0x00u, 0x40u, 0x00u, 0x40u, 0x00u, 0x40u, 0x00u, 0x40u,
0x00u, 0x40u, 0x00u, 0x40u, 0x00u, 0x40u, 0x00u, 0x40u, 0x00u, 0x40u, 0x00u,
0x40u, 0x00u, 0x40u, 0x00u, 0x40u, 0x00u, 0x40u, 0x00u, 0x40u, 0x00u, 0x40u,
0x00u, 0x40u, 0x00u, 0x40u, 0x00u, 0x40u, 0x00u, 0x40u, 0x00u, 0x40u, 0x00u,
0x40u, 0x00u, 0x40u, 0x00u, 0x40u, 0x00u, 0x40u, 0x00u, 0x40u, 0x00u, 0x40u,
0x00u, 0x40u, 0x00u, 0x40u, 0x00u, 0x40u, 0x00u, 0x40u, 0x00u, 0x40u, 0x00u,
0x40u, 0x00u, 0x40u, 0x00u, 0x40u, 0x00u, 0x40u, 0x00u, 0x40u, 0x00u, 0x40u,
0x00u, 0x40u, 0x00u, 0x40u, 0x00u, 0x40u, 0x00u, 0x40u, 0x00u, 0x40u, 0x00u,
0x40u, 0x00u, 0x40u, 0x00u, 0x40u, 0x00u, 0x40u, 0x00u, 0x40u, 0x00u, 0x40u,
0x00u, 0x40u, 0x00u, 0x40u, 0x00u, 0x40u, 0x00u, 0x40u, 0x00u, 0x40u, 0x00u,
0x40u, 0x00u, 0x40u, 0x00u, 0x40u, 0x00u, 0x40u, 0x00u, 0x40u, 0x00u, 0x40u,
0x00u, 0x40u, 0x00u, 0x40u, 0x00u, 0x40u, 0x00u, 0x40u, 0x00u, 0x40u, 0x00u,
0x40u, 0x00u, 0x40u, 0x00u, 0x40u, 0x00u, 0x40u, 0x00u, 0x40u, 0x00u, 0x40u,
0x00u, 0x40u, 0x00u, 0x40u, 0x00u, 0x40u, 0x00u, 0x40u, 0x00u, 0x40u, 0x00u,
0x40u, 0x00u, 0x40u, 0x00u, 0x40u, 0x00u, 0x40u, 0x00u, 0x40u, 0x00u, 0x40u,
0x00u, 0x40u, 0x00u, 0x40u, 0x00u, 0x40u, 0x00u, 0x40u, 0x00u, 0x40u, 0x00u,
0x40u, 0x00u, 0x40u, 0x00u, 0x40u, 0x00u, 0x40u, 0x00u, 0x40u, 0x00u, 0x40u,
0x00u, 0x40u, 0x00u, 0x40u, 0x00u, 0x40u, 0x00u, 0x40u, 0x00u, 0x40u, 0x00u,
0x40u, 0x00u, 0x40u, 0x00u, 0x40u, 0x00u, 0x40u, 0x00u, 0x40u, 0x00u, 0x40u,
0x00u, 0x40u, 0x00u, 0x40u, 0x00u, 0x40u, 0x00u, 0x40u, 0x00u, 0x40u, 0x00u,
0x40u, 0x00u, 0x40u, 0x00u, 0x40u, 0x00u, 0x40u, 0x00u, 0x40u, 0x00u, 0x40u,
0x00u, 0x40u, 0x00u, 0x40u, 0x00u, 0x40u, 0x00u, 0x40u, 0x00u, 0x40u, 0x00u,
0x40u, 0x00u, 0x40u, 0x00u, 0x40u, 0x00u, 0x40u, 0x00u, 0x40u, 0x00u, 0x40u,
0x00u, 0x40u, 0x00u, 0x40u, 0x00u, 0x40u, 0x00u, 0x40u, 0x00u, 0x40u, 0x00u,
0x40u, 0x00u, 0x40u, 0x00u, 0x40u, 0x00u, 0x40u, 0x00u, 0x40u, 0x00u, 0x40u,
0x00u, 0x40u, 0x00u, 0x40u, 0x00u, 0x40u, 0x00u, 0x40u, 0x00u, 0x40u, 0x00u,
0x40u, 0x00u, 0x40u, 0x00u, 0x40u, 0x00u, 0x40u, 0x00u, 0x40u, 0x00u, 0x40u,
0x00u, 0x40u, 0x00u, 0x40u, 0x00u, 0x40u, 0x00u, 0x40u, 0x00u, 0x40u, 0x00u,
0x40u, 0x00u, 0x40u, 0x00u, 0x40u, 0x00u, 0x40u, 0x00u, 0x40u, 0x00u, 0x40u,
0x00u, 0x40u, 0x00u, 0x40u, 0x00u, 0x40u, 0x00u, 0x40u, 0x00u, 0x40u, 0x00u,
0x40u, 0x00u, 0x40u, 0x00u, 0x40u, 0x00u, 0x40u, 0x00u, 0x40u, 0x00u, 0x40u,
0x00u, 0x40u, 0x00u, 0x40u, 0x00u, 0x40u, 0x00u, 0x40u, 0x00u, 0x40u, 0x00u,
0x40u, 0x00u, 0x40u, 0x00u, 0x00u, 0x00u, 0x00u, 0x00u, 0x01u, 0x02u, 0x00u,
0x01u, 0x00u, 0x00u, 0x00u, 0x00u, 0x00u, 0x00u, 0x00u, 0x00u, 0x40u, 0x00u,
0x00u, 0x02u, 0x00u, 0x00u, 0x00u, 0x00u, 0x00u, 0x00u, 0x40u, 0x00u, 0x00u,
0x00u