0x43u, 0x46u, 0x53u, 0x00u, 0x01u, 0x01u, 0x02u, 0x01u, 0x03u, 0x00u, 0x00u,
0x00u, 0xe0u, 0x00u, 0x00u, 0x00u, 0x06u, 0x66u, 0x1fu, 0xf7u, 0x00u, 0x00u,
0x1bu, 0x32u, 0x1fu, 0xffu, 0x1fu, 0xffu, 0x2fu, 0xffu, 0x00u, 0x00u, 0x20u,
0x07u, 0x39u, 0x98u, 0x3fu, 0xffu, 0x4fu, 0xfeu, 0x02u, 0x00u, 0x00u, 0x00u,
0xf3u, 0x33u, 0x00u, 0x00u, 0x0cu, 0xccu, 0x1fu, 0xffu, 0x00u, 0x00u, 0x1fu,
0xadu, 0x33u, 0x32u, 0x3fu, 0xffu, 0x4cu, 0xcbu, 0x00u, 0x05u, 0x00u, 0x00u,
0x00u, 0x00u, 0x03u, 0x33u, 0x03u, 0x33u, 0x06u, 0x66u, 0x00u, 0x00u, 0x0cu,
0xccu, 0x0fu, 0xffu, 0x0fu, 0xffu, 0x13u, 0x32u, 0x00u, 0x00u, 0x1cu, 0xccu,
0x1fu, 0xffu, 0x1fu, 0xffu, 0x23u, 0x32u, 0x00u, 0x00u, 0x2cu, 0xccu, 0x2fu,
0xffu, 0x2fu, 0xffu, 0x33u, 0x32u, 0x00u, 0x00u, 0x39u, 0x98u, 0x3cu, 0xcbu,
0x3cu, 0xcbu, 0x3fu, 0xffu, 0x01u, 0x00u, 0x00u, 0x08u, 0x00u, 0x04u, 0x00u,
0x03u, 0x00u, 0x04u, 0x00u, 0x01u, 0x00u, 0x00u, 0x00u, 0x02u, 0x02u, 0x01u,
0x00u, 0x02u, 0x01u, 0x03u